{
  "db": {
    "host": "79.137.74.227",
    "port": 27018,
    "url": "mongodb://remote:remote@79.137.74.227:27018",
    "database": "remote",
    "password": "remote",
    "name": "db",
    "user": "remote",
    "authSource": "admin",
    "connector": "mongodb"
  }
}
